{
  "project_info": {
    "project_number": "152937218570",
    "project_id": "mt2022-ventas-3342",
    "storage_bucket": "mt2022-ventas-3342.appspot.com"
  },
  "client": [
    {
      "client_info": {
        "mobilesdk_app_id": "1:152937218570:android:1a9923af68414d391055f3",
        "android_client_info": {
          "package_name": "com.example.ventas_3342"
        }
      },
      "oauth_client": [
        {
          "client_id": "152937218570-6j8a88e34l5b2voifo4qdbt683s19m5j.apps.googleusercontent.com",
          "client_type": 3
        }
      ],
      "api_key": [
        {
          "current_key": "AIzaSyAD3kb3Vx70_FqeYFVD__wQzGjj-9AuFuc"
        }
      ],
      "services": {
        "appinvite_service": {
          "other_platform_oauth_client": [
            {
              "client_id": "152937218570-6j8a88e34l5b2voifo4qdbt683s19m5j.apps.googleusercontent.com",
              "client_type": 3
            }
          ]
        }
      }
    }
  ],
  "configuration_version": "1"
}